Fundamentos de R para Ciencias Sociales y Gestión Pública - 2 Manipulación de tablas
…
Por ejemplo, podríamos abrir este archivo con la función read_xlsx():

library(readxl)
data<-read_xlsx("data/CPI.xlsx")

Podemos ver las datas (y las diferencias que trae abrirlas con uno u otro paquete):

#data_con_rio
class(data_con_rio)

[1] "data.frame"

data

# A tibble: 1,086 × 5
   country               year iso3  region cpi_score
   <chr>                <dbl> <chr> <chr>      <dbl>
 1 Afghanistan           2022 AFG   AP            24
 2 Albania               2022 ALB   ECA           36
 3 United Arab Emirates  2022 ARE   MENA          67
 4 Angola                2022 AGO   SSA           33
 5 Argentina             2022 ARG   AME           38
 6 Armenia               2022 ARM   ECA           46
 7 Australia             2022 AUS   AP            75
 8 Austria               2022 AUT   WE/EU         71
 9 Azerbaijan            2022 AZE   ECA           23
10 Bahamas               2022 BHS   AME           64
# ℹ 1,076 more rows
…
La función select() es utilizada para seleccionar o excluir columnas de un data frame o tibble en R. Va más allá de simplemente escoger columnas por nombre, ya que permite una amplia gama de criterios y operaciones.

Funcionamiento básico:

Entrada: Un data frame o tibble y un conjunto de nombres de columnas o criterios para seleccionar columnas.

Salida: Un objeto de la misma clase que el de entrada (data frame o tibble) que contiene solo las columnas seleccionadas.

Vamos a seleccionar sólo ciertas columnas:

data1<-data |> 
  select(country, year, region, cpi_score)
data1

# A tibble: 1,086 × 4
   country               year region cpi_score
   <chr>                <dbl> <chr>      <dbl>
 1 Afghanistan           2022 AP            24
 2 Albania               2022 ECA           36
 3 United Arab Emirates  2022 MENA          67
 4 Angola                2022 SSA           33
 5 Argentina             2022 AME           38
 6 Armenia               2022 ECA           46
 7 Australia             2022 AP            75
 8 Austria               2022 WE/EU         71
 9 Azerbaijan            2022 ECA           23
10 Bahamas               2022 AME           64
# ℹ 1,076 more rows
…
Características principales:

Condiciones múltiples: Puedes usar múltiples condiciones para filtrar tus datos. Estas se combinan utilizando operadores lógicos como & (y), | (o) y ! (no).

Uso de operadores de comparación: Los operadores estándar como ==, >, <, >=, <=, y != se utilizan para establecer condiciones.

Funciones auxiliares: dplyr proporciona funciones como between(), que pueden ser útiles para establecer condiciones. Por ejemplo, between(x, 1, 10) es equivalente a x >= 1 & x <= 10.

En este caso vamos a seleccionar aquellos países cuya medición es del año 2022.

data2<-data1 %>%                   
  filter(year==2022)
data2

# A tibble: 181 × 4
   country               year region cpi_score
   <chr>                <dbl> <chr>      <dbl>
 1 Afghanistan           2022 AP            24
 2 Albania               2022 ECA           36
 3 United Arab Emirates  2022 MENA          67
 4 Angola                2022 SSA           33
 5 Argentina             2022 AME           38
 6 Armenia               2022 ECA           46
 7 Australia             2022 AP            75
 8 Austria               2022 WE/EU         71
 9 Azerbaijan            2022 ECA           23
10 Bahamas               2022 AME           64
# ℹ 171 more rows
…
Se utiliza para ordenar (o reordenar) un data frame o tibble según una o más columnas.

Funcionamiento básico:

Ordenación simple: Si proporcionas una columna a arrange(), ordenará el data frame en función de esa columna en orden ascendente por defecto.

Ordenación descendente: Si deseas ordenar en dirección descendente, puedes usar la función desc(). Por ejemplo: df |> arrange(desc(edad)) ordenará el data frame por la columna “edad” en orden descendente.

Ordenación múltiple: Puedes proporcionar múltiples columnas para ordenar, y arrange() las usará en el orden proporcionado para determinar el ordenamiento. Por ejemplo, si deseas ordenar primero por “grupo” y luego por “edad” dentro de cada grupo, usarías: df |> arrange(grupo, edad).

data3<-data2 |>    
  arrange(desc(cpi_score))
data3

# A tibble: 181 × 4
   country      year region cpi_score
   <chr>       <dbl> <chr>      <dbl>
 1 Denmark      2022 WE/EU         90
 2 Finland      2022 WE/EU         87
 3 New Zealand  2022 AP            87
 4 Norway       2022 WE/EU         84
 5 Singapore    2022 AP            83
 6 Sweden       2022 WE/EU         83
 7 Switzerland  2022 WE/EU         82
 8 Netherlands  2022 WE/EU         80
 9 Germany      2022 WE/EU         79
10 Ireland      2022 WE/EU         77
# ℹ 171 more rows
2.2.5 Mutate()

La función mutate() está diseñada para crear o modificar columnas dentro de un data frame o tibble en R. Mientras que el data frame original se mantiene inalterado, mutate() devuelve una copia con las columnas especificadas añadidas o alteradas.

En este caso vamos a crear una variable cambiando la escala del score del CPI.

En la medida original 0 representaba alta corrupción y 100 escasa corrupción. Ahora, si realizamos la operación “100 - cpi_score”, los valores cercanos a 0 tendrán poca corrupción y los cercanos a 100 alta corrupción, siendo más intuitivo.

Esta transformación puede ser útil para ajustar la interpretación de los datos a contextos donde es más intuitivo trabajar con escalas donde un número mayor indica mayor intensidad de un fenómeno (Corrupción, en este caso), dependiendo del análisis que se desea realizar.

data4<-data3 |>   
  mutate(cpi_score2=100-cpi_score) 
data4

# A tibble: 181 × 5
   country      year region cpi_score cpi_score2
   <chr>       <dbl> <chr>      <dbl>      <dbl>
 1 Denmark      2022 WE/EU         90         10
 2 Finland      2022 WE/EU         87         13
 3 New Zealand  2022 AP            87         13
 4 Norway       2022 WE/EU         84         16
 5 Singapore    2022 AP            83         17
 6 Sweden       2022 WE/EU         83         17
 7 Switzerland  2022 WE/EU         82         18
 8 Netherlands  2022 WE/EU         80         20
 9 Germany      2022 WE/EU         79         21
10 Ireland      2022 WE/EU         77         23
# ℹ 171 more rows
…
Nota

En la última línea de código, indicamos a R que ordene los datos de acuerdo a la variable ‘n’, la cual fue definida en la línea de código precedente. Es importante recordar que la ejecución de acciones o funciones en R se realiza de manera secuencial y acumulativa.

2.3.3 Renombrar con rename()

Permite cambiar los nombres de las columnas de un dataframe. Para ello, se especifica el nuevo nombre deseado y el nombre actual de la columna. Esta función es útil cuando se necesita ajustar o estandarizar los nombres de las columnas en un conjunto de datos, facilitando así análisis posteriores y asegurando la claridad y consistencia en la manipulación de los datos.

Primero debes escribir el nuevo nombre y luego el nombre original de la variable.

data_final |>   
  rename(zona=region)   # Renombro la columna "region" (nombre original) como "zona" (nombre nuevo)

# A tibble: 181 × 5
   country      year zona  cpi_score cpi_score2
   <chr>       <dbl> <chr>     <dbl>      <dbl>
 1 Denmark      2022 WE/EU        90         10
 2 Finland      2022 WE/EU        87         13
 3 New Zealand  2022 AP           87         13
 4 Norway       2022 WE/EU        84         16
 5 Singapore    2022 AP           83         17
 6 Sweden       2022 WE/EU        83         17
 7 Switzerland  2022 WE/EU        82         18
 8 Netherlands  2022 WE/EU        80         20
 9 Germany      2022 WE/EU        79         21
10 Ireland      2022 WE/EU        77         23
# ℹ 171 more rows
…
